        1    0.000    0.000    0.127    0.127 read_csv.py:35(return_dead_characters)
        1    0.008    0.008    0.127    0.127 read_csv.py:36(<listcomp>)
    16377    0.008    0.000    0.117    0.000 read_csv.py:6(return_list_heroes)
    16376    0.004    0.000    0.004    0.000 read_csv.py:15(normalize_data)
        1    0.000    0.000    0.001    0.001 read_csv.py:1(<module>)
